<svg viewBox="0 0 100 100">
	<path d="m50 10a40 40 0 0 0-11.9 1.8566c0.14356-0.02233 0.2572-4e-3 0.32674 0.06556 0.06472 0.06472-0.52772 0.93942-1.3168 1.9435l-1.4348 1.8255 3.8575 3.0936 3.8575 3.0931 7.9745-0.0022 7.9751-0.0027 3.2838-2.585c1.8062-1.4219 3.2555-2.7114 3.221-2.8653-0.03454-0.15386-1.1032-1.213-2.3751-2.3538-1.2719-1.1408-2.258-2.129-2.191-2.1959 0.36361-0.3636 2.397 0.7648 4.1613 2.309 1.5251 1.3349 2.5648 1.9743 4.2908 2.6396 2.5203 0.97141 6.1938 3.0821 8.1423 4.6787 2.9121 2.3862 5.2133 6.6154 6.8714 12.628 0.61356 2.2247 1.2832 3.9098 2.0861 5.2497 2.6897 4.4888 3.3927 7.8003 2.9117 13.718l-0.22675 2.7866a40 40 0 0 0 0.48519-5.8818 40 40 0 0 0-40-40zm-12.301 1.9894a40 40 0 0 0-27.699 38.011 40 40 0 0 0 5.2743 19.753c-0.495-1.1399-1.0836-2.9717-1.3108-4.2995-0.29467-1.7221-0.81636-3.3401-1.6605-5.1464-1.6549-3.5414-2.0675-5.2705-2.0233-8.4843 0.03352-2.4385 0.05433-2.5363 0.24423-1.1305 0.39669 2.9376 1.097 5.0832 3.2947 10.097l0.56278 1.2846 3.7357-0.96164c2.0546-0.52895 3.7576-0.98215 3.7843-1.007 0.02673-0.02484 0.19984-3.6184 0.38466-7.9855l0.33603-7.9401-3.4554-3.2718-3.4548-3.2723-1.0545 1.2758c-1.3344 1.6148-2.9286 4.6383-3.7783 7.1648l-0.65894 1.9583 0.13277-2.208c0.15721-2.617 0.9822-4.5114 3.3319-7.6505 1.2623-1.6864 1.5462-2.2814 1.696-3.5559 0.21223-1.8057 1.3556-5.5472 2.314-7.5713 0.89798-1.8966 3.3149-4.7746 5.6382-6.7146 2.2308-1.8627 6.7145-4.1558 9.3902-4.8022 1.7568-0.42438 2.0028-0.57668 2.9204-1.8058 0.56699-0.75946 1.4263-1.4499 2.0555-1.737zm-3.1171 4.3432-1.7086 0.39832c-2.1862 0.51-5.9423 2.3787-9.317 4.6345l-2.6511 1.7714-1.3938 2.9374c-1.6783 3.5365-2.4378 5.7428-2.8953 8.4111l-0.34314 2.002 3.4892 3.3133c1.9191 1.8222 3.582 3.2873 3.6958 3.2559 0.11378-0.03135 3.1654-1.568 6.7812-3.4144l6.5741-3.357 2.4828-6.2944c1.3654-3.4619 2.5674-6.5663 2.6713-6.8987 0.16254-0.51994-0.33993-1.0339-3.598-3.6816zm33.067 1.0737c-0.38641-0.0024-1.9578 1.0177-3.9498 2.5642l-3.3084 2.5686 1.5304 4.3553c0.84186 2.3955 1.9902 5.6745 2.5516 7.2866l1.0207 2.9314 5.8748 3.5646c3.2311 1.9604 5.9398 3.5681 6.019 3.5728 0.0792 0.0046 1.6832-1.5345 3.5646-3.4204l3.4204-3.4291-0.68736-2.5691c-0.98316-3.6738-2.1969-6.6699-3.7296-9.2072-1.1602-1.9206-1.6403-2.4198-3.7012-3.8471-2.6577-1.8406-7.6267-4.3644-8.6051-4.3706zm-24.307 5.5824-2.562 6.5594c-1.4092 3.6077-2.5578 6.6625-2.5527 6.7883 5e-3 0.12582 2.932 2.2606 6.5042 4.7443 5.8037 4.0351 6.5545 4.4791 7.0544 4.1717 0.30772-0.1892 3.1716-2.013 6.3643-4.0531 3.1928-2.0401 5.8629-3.8021 5.9332-3.916 0.07034-0.11382-0.97841-3.3435-2.3303-7.1768l-2.4582-6.9697-7.9762-0.07376zm-5.8551 14.645c-0.2026-0.07774-3.3722 1.3947-7.0435 3.2723l-6.6747 3.4138-0.32237 7.8647c-0.2086 5.0921-0.22633 7.9608-0.05026 8.1368 0.41363 0.41363 12.699 9.0881 12.891 9.1023 0.09241 0.0069 3.2509-1.4946 7.0189-3.3362l6.8512-3.3483 0.18414-6.0933c0.1012-3.3512 0.1843-6.9866 0.18468-8.0789l5.29e-4 -1.9861-6.3359-4.4033c-3.4846-2.4216-6.5016-4.466-6.7042-4.5438zm27.605 0.90646c-0.24368-0.0093-3.2964 1.8035-6.784 4.028l-6.3408 4.0444-0.15353 1.5506c-0.08436 0.85282-0.22831 4.5085-0.32018 8.1242l-0.16719 6.5741 6.1042 3.5597c3.3575 1.9576 6.2969 3.5627 6.5321 3.5668 0.23514 0.0042 1.3439-0.43156 2.4637-0.9682 2.5826-1.2377 5.4291-3.0746 8.369-5.401l2.308-1.8266v-5.2268c0-2.8746-0.0821-6.569-0.1825-8.21l-0.18249-2.9838-5.6016-3.4073c-3.0808-1.874-5.801-3.4149-6.0447-3.4242zm19.704 0.106-3.357 3.4357-3.357 3.4351 0.1716 16.018 2.9915 1.2551c1.6454 0.6903 3.0711 1.1776 3.1685 1.0829 0.0974-0.09461 1.1232-2.0604 2.2795-4.3684 2.0078-4.0075 2.1169-4.3255 2.4276-7.0735 0.31371-2.7743 0.29877-2.9698-0.41362-5.4551-0.78507-2.7389-2.4956-6.6328-3.3789-7.6915zm4.5684 18.225-2.1604 4.3115c-1.6646 3.3216-2.4593 5.2968-3.0811 7.6582-0.49779 1.8905-1.2576 3.7699-1.8271 4.688a40 40 0 0 0 7.0686-16.658zm-66.919 4.3372-3.6537 0.93433c-2.0095 0.5138-3.7319 0.97747-3.8275 1.0305-0.09558 0.05302 0.11756 1.7635 0.47372 3.8012 0.35615 2.0377 0.5999 3.7526 0.54202 3.8105-0.03212 0.03214-0.07636 0.01717-0.12622-0.02077a40 40 0 0 0 13.868 13.665l2.2773-0.20326c2.609-0.2331 4.9499-0.84446 6.6517-1.737l1.1512-0.60431-1.9812-5.5202c-1.0899-3.0362-2.1706-5.698-2.4014-5.9152-0.2308-0.21723-3.2445-2.385-6.6971-4.8175zm55.457 1.4824-1.938 1.566c-2.8555 2.3071-6.2513 4.5184-8.846 5.7606-1.2602 0.6033-2.4116 1.0966-2.5587 1.0966s-0.73948 1.2274-1.3163 2.7276c-1.3944 3.6269-2.7292 6.2612-3.7783 7.456l-0.85947 0.97913 1.2059 0.87422c1.7264 1.2521 4.3019 2.7899 4.6722 2.7899 0.17382 0 2.5942-1.1403 5.3786-2.5341 2.7845-1.3939 5.1156-2.4814 5.1798-2.4172 0.22044 0.22044-4.0151 2.9723-6.6889 4.346-4.4137 2.2677-3.8635 2.2751-7.5298-0.10327l-3.1783-2.0615-2.5101 0.4393c-2.9186 0.5113-9.0547 0.35784-12.301-0.30762l-1.9583-0.40105-2.285 0.96766c-1.3076 0.55376-3.2484 1.1081-4.5378 1.296-2.0469 0.29835-2.3494 0.27973-3.31-0.20216l-0.82231-0.41252a40 40 0 0 0 20.079 5.4497 40 40 0 0 0 31.941-16.003c-0.12118 0.1125-0.22259 0.14622-0.29396 0.07485-0.0713-0.07126 0.40522-2.0917 1.0589-4.4897 0.65368-2.3979 1.1397-4.401 1.0802-4.4514-0.0595-0.05039-1.4078-0.62011-2.9959-1.266zm-27.302 1.3365c-0.27388 0-12.452 5.8297-13.473 6.4496-0.06124 0.03718 0.75703 2.5375 1.8184 5.5568 1.5715 4.4706 2.0465 5.5346 2.5582 5.7327 2.5841 1.0003 11.074 1.317 14.54 0.54202 1.2661-0.28306 1.5929-0.50708 2.4544-1.6807 1.4839-2.0214 4.7225-9.2318 4.3208-9.6197-0.44458-0.4293-11.912-6.9807-12.218-6.9807z" />
</svg>
