<svg viewBox="0 0 100 100">
	<path d="m211.14 33.248c-88.865 0.27145-196.13 98.436-194.08 190.01 8.8706 18.227 18.524 33.649 28.809 46.744 0.11973 0.2217 0.23953 0.45264 0.35937 0.67188 8.8411 16.173 22.379 26.357 32.287 32.105 34.327 26.742 73.033 36.521 112.06 41.926 94.074 0 170.34-71.909 170.34-160.62 1.2152-89.216-59.674-155.63-141.23-150.56-2.824-0.19848-5.6705-0.29001-8.5371-0.28125zm-22.938 34.102c4.6437 0.057056 10.039 0.12037 21.154 0.23047 4.1377 0.75375 8.4061 1.4922 12.91 1.4922 19.836 1.905 36.322-0.90925 48.422 1.5059 4.8461 1.7298 11.463 4.6855 21.645 9.2734 7.6847 5.313 13.539 11.841 19.627 18 14.074 14.238 19.294 28.257 22.949 53.504 9e-4 8.1472-0.51408 15.97-1.5273 23.48l-15.258 42.693-19.242 31.486c-8.4762 9.0703-18.407 17.247-29.734 24.57-9.1999 4.1957-19.262 9.0006-24.941 12.434-1.9818 1.1979-3.7277 2.4437-5.3438 3.709-21.432 9.4187-46.253 16.787-74.289 22.242-8.4238-2.6424-20.882-5.1809-34.838-9.1875-12.572-1.0109-24.597-4.8057-34.295-12.854-14.443-7.1152-28.416-16.816-39.535-30.58-7.0695-8.7513-12.024-20.659-11.578-40.086-5.3827-10.55 7.2948-48.955 15.557-61.734 5.8884-9.1079 9.387-7.0903 13.125-8.7812 1.3869 1.0933 2.5993 1.5513 3.3418-0.45703 0.84474-2.2851 1.8801-4.5463 3.0703-6.7812 4.712-6.6374 9.5462-13.362 14.863-19.637 8.2812-8.4884 18.277-16.315 28.49-23.246 20.5-10.588 43.528-24.055 65.428-31.277z" transform="scale(.26458)" />
</svg>
