<svg viewBox="0 0 100 100">
	<path d="m13.92 30.114c-0.65214 1.1299-0.26484 2.5745 0.86506 3.2267 1.1299 0.65214 2.5745 0.26484 3.2267-0.86506 7.9763-13.815 24.208-20.539 39.617-16.41 15.409 4.1288 26.105 18.069 26.105 34.022 0 15.953-10.696 29.892-26.105 34.021-15.409 4.1288-31.641-2.5945-39.617-16.41-0.64525-1.1444-2.1003-1.5425-3.2383-0.88585-1.1379 0.65664-1.5214 2.1156-0.85348 3.2469 9.034 15.647 27.479 23.288 44.932 18.611 17.452-4.6763 29.607-20.516 29.607-38.584 0-18.068-12.155-33.908-29.607-38.584-20.643-5.6512-37.327 5.1369-44.932 18.611zm30.263 7.7329c-2.1214-5.29e-4 -3.1681 2.5786-1.6464 4.0566l5.6017 5.6012h-34.236c-1.3047 0-2.3624 1.0577-2.3624 2.3624s1.0577 2.3624 2.3624 2.3624h34.236l-5.6017 5.6017c-0.92227 0.92284-0.92181 2.4186 0.0011 3.3409 0.92284 0.92227 2.4186 0.92181 3.3409-0.0011l9.6351-9.633c0.0076-0.0082 0.01521-0.01648 0.02273-0.02482 0.0029-0.0029 0.0059-0.0058 0.0088-0.0088 0.01238-0.01294 0.02461-0.02604 0.03669-0.03927 0.98285-1.0404 0.82196-2.7089-0.34158-3.5424l-9.3618-9.3611c-0.44534-0.4576-1.057-0.71541-1.6955-0.71469z" />
</svg>
