<svg viewBox="0 0 100 100">
	<path d="m50 19.077c-9.7804 1e-6 -18.938 2.5154-26.687 6.2404v8.9896c2.2169-0.7262 4.45-1.3502 6.6983-1.8738v-4.1817a1.2326 1.2326 0 0 1 1.2128-1.2501 1.2326 1.2326 0 0 1 1.2521 1.2501v3.6484c1.7882-0.35665 3.5859-0.65138 5.3924-0.8847v-4.0742a1.2326 1.2326 0 0 1 1.2128-1.2501 1.2326 1.2326 0 0 1 1.2521 1.2501v3.7925c1.4799-0.14541 2.9659-0.2483 4.4571-0.31419v-3.4783a1.2326 1.2326 0 0 1 1.2149-1.2501 1.2326 1.2326 0 0 1 1.2501 1.2501v3.4013c0.63447-0.0097 1.2695-0.01305 1.9058-0.0088 0.91064 0.0061 1.8239 0.03077 2.7383 0.06511v-3.4577a1.2326 1.2326 0 0 1 1.2149-1.2501 1.2326 1.2326 0 0 1 1.2501 1.2501v3.5822c1.7293 0.1119 3.4653 0.27434 5.2069 0.48369v-3.5037a1.2326 1.2326 0 0 1 1.2128-1.2501 1.2326 1.2326 0 0 1 1.2521 1.2501v3.8277c1.7915 0.26092 3.5892 0.57343 5.3924 0.93328v-4.0127a1.2326 1.2326 0 0 1 1.2128-1.2501 1.2326 1.2326 0 0 1 1.2521 1.2501v4.5351c2.2561 0.50409 4.5205 1.0824 6.7929 1.7337v-9.2025c-7.7484-3.7252-16.907-6.241-26.687-6.241zm-1.587 14.114c-0.38619 5.03e-4 -0.77174 0.0037-1.157 0.0098v5.9939a1.2326 1.2326 0 1 1-2.465 0v-5.9149c-1.492 0.06858-2.9781 0.17439-4.4571 0.32556v5.5893a1.2326 1.2326 0 1 1-2.465 0v-5.2937c-1.8075 0.24296-3.6052 0.54911-5.3924 0.92036v5.6839a1.2326 1.2326 0 1 1-2.465 0v-5.1335c-2.2498 0.54578-4.4823 1.1979-6.6983 1.956v37.258c7.687 3.7264 16.777 6.2661 26.493 6.3319l0.0011 0.0047c0.06444 0 0.12836-0.0019 0.19275-0.0021 0.06436 2.17e-4 0.12834 0.0021 0.19275 0.0021l0.0011-0.0047c9.7166-0.06588 18.806-2.6054 26.493-6.3319v-37.078c-2.2758-0.66902-4.5404-1.2659-6.793-1.7839v4.7821a1.2326 1.2326 0 1 1-2.465 0v-5.3211c-1.8053-0.37111-3.603-0.69057-5.3925-0.95963v5.5325a1.2326 1.2326 0 1 1-2.465 0v-5.872c-1.7435-0.21655-3.4791-0.38455-5.2069-0.50023v5.81a1.2326 1.2326 0 1 1-2.465 0v-5.9366c-1.1658-0.04529-2.3285-0.06864-3.4871-0.06718zm-38.148 0.51986c-6.6397 5.637-10.569 11.793-10.458 16.288l0.19327 0.03824c-0.08715 4.4474 3.7613 10.508 10.264 16.083zm79.471 5.29e-4v32.408c6.5028-5.5748 10.351-11.635 10.264-16.082l0.19327-0.03824c0.11085-4.4948-3.8179-10.651-10.457-16.288z" />
</svg>
